guerin-steven-ADA-homework4
…
Challenge 2

# Plotting G7 plus China Russia and Iran 
cv_summary(d = cv_data, country_list=c("US","United Kingdom","Canada","France","Germany","Italy","Japan","China","Russia","Iran"),
           facet="country")

## $totals
## # A tibble: 54 x 13
##    country variable cases population   area density    rate gdp_capita income
##    <chr>   <chr>    <dbl>      <dbl>  <dbl>   <dbl>   <dbl>      <dbl> <chr> 
##  1 Canada  confirm 70091   37057765 9.09e6    4.08 1.89e+3     51392. High 
##  2 Canada  daily_c  2778   37057765 9.09e6    4.08 7.50e+1     51392. High 
##  3 Canada  daily_d   251   37057765 9.09e6    4.08 6.77e+0     51392. High 
##  4 Canada  daily_r  1385   37057765 9.09e6    4.08 3.74e+1     51392. High 
##  5 Canada  deaths    4991   37057765 9.09e6    4.08 1.35e+2     51392. High 
##  6 Canada  recover 32109   37057765 9.09e6    4.08 8.66e+2     51392. High 
##  7 China   confirm 84010 1392730000 9.39e6  148.   6.03e+1      7753. Upper
##  8 China   daily_c 15136 1392730000 9.39e6  148.   1.09e+1      7753. Upper
##  9 China   daily_d  1290 1392730000 9.39e6  148.   9.26e-1      7753. Upper
## 10 China   daily_r  3995 1392730000 9.39e6  148.   2.87e+0      7753. Upper
## #  with 44 more rows, and 4 more variables: life_expectancy <dbl>,
## #   max_sd <dbl>, max_mr <dbl>, on <date>
## 
## $cum_cases_plot
…
Challenge 3

#All countries 
d<-cv_summary(d=cv_data, country_list="All", plot="FALSE") 
d 

## $totals
## # A tibble: 1,224 x 13
##    country variable cases population   area density    rate gdp_capita income
##    <chr>   <chr>    <dbl>      <dbl>  <dbl>   <dbl>   <dbl>      <dbl> <chr> 
##  1 Afghan confirm  4402   37172386 652860    56.9 118.          564. Low i
##  2 Afghan daily_c   369   37172386 652860    56.9   9.93        564. Low i
##  3 Afghan daily_d    13   37172386 652860    56.9   0.350       564. Low i
##  4 Afghan daily_r    56   37172386 652860    56.9   1.51        564. Low i
##  5 Afghan deaths     120   37172386 652860    56.9   3.23        564. Low i
##  6 Afghan recover   558   37172386 652860    56.9  15.0         564. Low i
##  7 Albania confirm   868    2866376  27400   105.  303.         5079. Upper
##  8 Albania daily_c    34    2866376  27400   105.   11.9        5079. Upper
##  9 Albania daily_d     4    2866376  27400   105.    1.40       5079. Upper
## 10 Albania daily_r    31    2866376  27400   105.   10.8        5079. Upper
## #  with 1,214 more rows, and 4 more variables: life_expectancy <dbl>,
## #   max_sd <dbl>, max_mr <dbl>, on <date>

#Only including countries with population over 1 million 
d<-d[[1]] %>%
  filter(population>1000000)
d

## # A tibble: 924 x 13
##    country variable cases population   area density    rate gdp_capita income
##    <chr>   <chr>    <dbl>      <dbl>  <dbl>   <dbl>   <dbl>      <dbl> <chr> 
##  1 Afghan confirm  4402   37172386 652860    56.9 118.          564. Low i
##  2 Afghan daily_c   369   37172386 652860    56.9   9.93        564. Low i
##  3 Afghan daily_d    13   37172386 652860    56.9   0.350       564. Low i
##  4 Afghan daily_r    56   37172386 652860    56.9   1.51        564. Low i
##  5 Afghan deaths     120   37172386 652860    56.9   3.23        564. Low i
##  6 Afghan recover   558   37172386 652860    56.9  15.0         564. Low i
##  7 Albania confirm   868    2866376  27400   105.  303.         5079. Upper
##  8 Albania daily_c    34    2866376  27400   105.   11.9        5079. Upper
##  9 Albania daily_d     4    2866376  27400   105.    1.40       5079. Upper
## 10 Albania daily_r    31    2866376  27400   105.   10.8        5079. Upper
## #  with 914 more rows, and 4 more variables: life_expectancy <dbl>,
## #   max_sd <dbl>, max_mr <dbl>, on <date>
…
